{
  "customerreport": {
    "list_response": {
      "status": "success",
      "status_code": 200,
      "message": "List of CustomerReports",
      "data": [
        {
          "id": 1,
          "name": "Example CustomerReport 1",
          "created_at": "2025-05-20T10:30:45Z"
        },
        {
          "id": 2,
          "name": "Example CustomerReport 2",
          "created_at": "2025-05-21T11:30:45Z"
        }
      ],
      "pagination": {
        "count": 20,
        "page_size": 10,
        "current_page": 1,
        "total_pages": 2,
        "next": "/api/v1/customerreports?page=2",
        "previous": null
      }
    },
    "detail_response": {
      "status": "success",
      "status_code": 200,
      "message": "CustomerReport details",
      "data": {
        "id": 1,
        "name": "Example CustomerReport",
        "description": "This is an example CustomerReport",
        "created_at": "2025-05-20T10:30:45Z",
        "updated_at": "2025-05-25T14:15:30Z"
      }
    },
    "create_request": {
      "name": "New CustomerReport",
      "description": "This is a new CustomerReport"
    },
    "create_response": {
      "status": "success",
      "status_code": 201,
      "message": "CustomerReport created successfully",
      "data": {
        "id": 3,
        "name": "New CustomerReport",
        "description": "This is a new CustomerReport",
        "created_at": "2025-05-27T10:30:45Z",
        "updated_at": "2025-05-27T10:30:45Z"
      }
    },
    "update_request": {
      "name": "Updated CustomerReport",
      "description": "This is an updated CustomerReport"
    },
    "update_response": {
      "status": "success",
      "status_code": 200,
      "message": "CustomerReport updated successfully",
      "data": {
        "id": 1,
        "name": "Updated CustomerReport",
        "description": "This is an updated CustomerReport",
        "created_at": "2025-05-20T10:30:45Z",
        "updated_at": "2025-05-27T11:15:30Z"
      }
    },
    "delete_response": {
      "status": "success",
      "status_code": 204,
      "message": "CustomerReport deleted successfully"
    },
    "error_response": {
      "status": "error",
      "status_code": 400,
      "message": "Invalid input",
      "errors": {
        "name": [
          "This field is required."
        ],
        "description": [
          "This field cannot be blank."
        ]
      }
    }
  },
  "productreport": {
    "list_response": {
      "status": "success",
      "status_code": 200,
      "message": "List of ProductReports",
      "data": [
        {
          "id": 1,
          "name": "Example ProductReport 1",
          "created_at": "2025-05-20T10:30:45Z"
        },
        {
          "id": 2,
          "name": "Example ProductReport 2",
          "created_at": "2025-05-21T11:30:45Z"
        }
      ],
      "pagination": {
        "count": 20,
        "page_size": 10,
        "current_page": 1,
        "total_pages": 2,
        "next": "/api/v1/productreports?page=2",
        "previous": null
      }
    },
    "detail_response": {
      "status": "success",
      "status_code": 200,
      "message": "ProductReport details",
      "data": {
        "id": 1,
        "name": "Example ProductReport",
        "description": "This is an example ProductReport",
        "created_at": "2025-05-20T10:30:45Z",
        "updated_at": "2025-05-25T14:15:30Z"
      }
    },
    "create_request": {
      "name": "New ProductReport",
      "description": "This is a new ProductReport"
    },
    "create_response": {
      "status": "success",
      "status_code": 201,
      "message": "ProductReport created successfully",
      "data": {
        "id": 3,
        "name": "New ProductReport",
        "description": "This is a new ProductReport",
        "created_at": "2025-05-27T10:30:45Z",
        "updated_at": "2025-05-27T10:30:45Z"
      }
    },
    "update_request": {
      "name": "Updated ProductReport",
      "description": "This is an updated ProductReport"
    },
    "update_response": {
      "status": "success",
      "status_code": 200,
      "message": "ProductReport updated successfully",
      "data": {
        "id": 1,
        "name": "Updated ProductReport",
        "description": "This is an updated ProductReport",
        "created_at": "2025-05-20T10:30:45Z",
        "updated_at": "2025-05-27T11:15:30Z"
      }
    },
    "delete_response": {
      "status": "success",
      "status_code": 204,
      "message": "ProductReport deleted successfully"
    },
    "error_response": {
      "status": "error",
      "status_code": 400,
      "message": "Invalid input",
      "errors": {
        "name": [
          "This field is required."
        ],
        "description": [
          "This field cannot be blank."
        ]
      }
    }
  },
  "salesreport": {
    "list_response": {
      "status": "success",
      "status_code": 200,
      "message": "List of SalesReports",
      "data": [
        {
          "id": 1,
          "name": "Example SalesReport 1",
          "created_at": "2025-05-20T10:30:45Z"
        },
        {
          "id": 2,
          "name": "Example SalesReport 2",
          "created_at": "2025-05-21T11:30:45Z"
        }
      ],
      "pagination": {
        "count": 20,
        "page_size": 10,
        "current_page": 1,
        "total_pages": 2,
        "next": "/api/v1/salesreports?page=2",
        "previous": null
      }
    },
    "detail_response": {
      "status": "success",
      "status_code": 200,
      "message": "SalesReport details",
      "data": {
        "id": 1,
        "name": "Example SalesReport",
        "description": "This is an example SalesReport",
        "created_at": "2025-05-20T10:30:45Z",
        "updated_at": "2025-05-25T14:15:30Z"
      }
    },
    "create_request": {
      "name": "New SalesReport",
      "description": "This is a new SalesReport"
    },
    "create_response": {
      "status": "success",
      "status_code": 201,
      "message": "SalesReport created successfully",
      "data": {
        "id": 3,
        "name": "New SalesReport",
        "description": "This is a new SalesReport",
        "created_at": "2025-05-27T10:30:45Z",
        "updated_at": "2025-05-27T10:30:45Z"
      }
    },
    "update_request": {
      "name": "Updated SalesReport",
      "description": "This is an updated SalesReport"
    },
    "update_response": {
      "status": "success",
      "status_code": 200,
      "message": "SalesReport updated successfully",
      "data": {
        "id": 1,
        "name": "Updated SalesReport",
        "description": "This is an updated SalesReport",
        "created_at": "2025-05-20T10:30:45Z",
        "updated_at": "2025-05-27T11:15:30Z"
      }
    },
    "delete_response": {
      "status": "success",
      "status_code": 204,
      "message": "SalesReport deleted successfully"
    },
    "error_response": {
      "status": "error",
      "status_code": 400,
      "message": "Invalid input",
      "errors": {
        "name": [
          "This field is required."
        ],
        "description": [
          "This field cannot be blank."
        ]
      }
    }
  },
  "trafficlog": {
    "list_response": {
      "status": "success",
      "status_code": 200,
      "message": "List of TrafficLogs",
      "data": [
        {
          "id": 1,
          "name": "Example TrafficLog 1",
          "created_at": "2025-05-20T10:30:45Z"
        },
        {
          "id": 2,
          "name": "Example TrafficLog 2",
          "created_at": "2025-05-21T11:30:45Z"
        }
      ],
      "pagination": {
        "count": 20,
        "page_size": 10,
        "current_page": 1,
        "total_pages": 2,
        "next": "/api/v1/trafficlogs?page=2",
        "previous": null
      }
    },
    "detail_response": {
      "status": "success",
      "status_code": 200,
      "message": "TrafficLog details",
      "data": {
        "id": 1,
        "name": "Example TrafficLog",
        "description": "This is an example TrafficLog",
        "created_at": "2025-05-20T10:30:45Z",
        "updated_at": "2025-05-25T14:15:30Z"
      }
    },
    "create_request": {
      "name": "New TrafficLog",
      "description": "This is a new TrafficLog"
    },
    "create_response": {
      "status": "success",
      "status_code": 201,
      "message": "TrafficLog created successfully",
      "data": {
        "id": 3,
        "name": "New TrafficLog",
        "description": "This is a new TrafficLog",
        "created_at": "2025-05-27T10:30:45Z",
        "updated_at": "2025-05-27T10:30:45Z"
      }
    },
    "update_request": {
      "name": "Updated TrafficLog",
      "description": "This is an updated TrafficLog"
    },
    "update_response": {
      "status": "success",
      "status_code": 200,
      "message": "TrafficLog updated successfully",
      "data": {
        "id": 1,
        "name": "Updated TrafficLog",
        "description": "This is an updated TrafficLog",
        "created_at": "2025-05-20T10:30:45Z",
        "updated_at": "2025-05-27T11:15:30Z"
      }
    },
    "delete_response": {
      "status": "success",
      "status_code": 204,
      "message": "TrafficLog deleted successfully"
    },
    "error_response": {
      "status": "error",
      "status_code": 400,
      "message": "Invalid input",
      "errors": {
        "name": [
          "This field is required."
        ],
        "description": [
          "This field cannot be blank."
        ]
      }
    }
  }
}