{
  "notification": {
    "list_response": {
      "status": "success",
      "status_code": 200,
      "message": "List of Notifications",
      "data": [
        {
          "id": 1,
          "name": "Example Notification 1",
          "created_at": "2025-05-20T10:30:45Z"
        },
        {
          "id": 2,
          "name": "Example Notification 2",
          "created_at": "2025-05-21T11:30:45Z"
        }
      ],
      "pagination": {
        "count": 20,
        "page_size": 10,
        "current_page": 1,
        "total_pages": 2,
        "next": "/api/v1/notifications?page=2",
        "previous": null
      }
    },
    "detail_response": {
      "status": "success",
      "status_code": 200,
      "message": "Notification details",
      "data": {
        "id": 1,
        "name": "Example Notification",
        "description": "This is an example Notification",
        "created_at": "2025-05-20T10:30:45Z",
        "updated_at": "2025-05-25T14:15:30Z"
      }
    },
    "create_request": {
      "name": "New Notification",
      "description": "This is a new Notification"
    },
    "create_response": {
      "status": "success",
      "status_code": 201,
      "message": "Notification created successfully",
      "data": {
        "id": 3,
        "name": "New Notification",
        "description": "This is a new Notification",
        "created_at": "2025-05-27T10:30:45Z",
        "updated_at": "2025-05-27T10:30:45Z"
      }
    },
    "update_request": {
      "name": "Updated Notification",
      "description": "This is an updated Notification"
    },
    "update_response": {
      "status": "success",
      "status_code": 200,
      "message": "Notification updated successfully",
      "data": {
        "id": 1,
        "name": "Updated Notification",
        "description": "This is an updated Notification",
        "created_at": "2025-05-20T10:30:45Z",
        "updated_at": "2025-05-27T11:15:30Z"
      }
    },
    "delete_response": {
      "status": "success",
      "status_code": 204,
      "message": "Notification deleted successfully"
    },
    "error_response": {
      "status": "error",
      "status_code": 400,
      "message": "Invalid input",
      "errors": {
        "name": [
          "This field is required."
        ],
        "description": [
          "This field cannot be blank."
        ]
      }
    }
  }
}