{
  "attributevalue": {
    "list_response": {
      "status": "success",
      "status_code": 200,
      "message": "List of AttributeValues",
      "data": [
        {
          "id": 1,
          "name": "Example AttributeValue 1",
          "created_at": "2025-05-20T10:30:45Z"
        },
        {
          "id": 2,
          "name": "Example AttributeValue 2",
          "created_at": "2025-05-21T11:30:45Z"
        }
      ],
      "pagination": {
        "count": 20,
        "page_size": 10,
        "current_page": 1,
        "total_pages": 2,
        "next": "/api/v1/attributevalues?page=2",
        "previous": null
      }
    },
    "detail_response": {
      "status": "success",
      "status_code": 200,
      "message": "AttributeValue details",
      "data": {
        "id": 1,
        "name": "Example AttributeValue",
        "description": "This is an example AttributeValue",
        "created_at": "2025-05-20T10:30:45Z",
        "updated_at": "2025-05-25T14:15:30Z"
      }
    },
    "create_request": {
      "name": "New AttributeValue",
      "description": "This is a new AttributeValue"
    },
    "create_response": {
      "status": "success",
      "status_code": 201,
      "message": "AttributeValue created successfully",
      "data": {
        "id": 3,
        "name": "New AttributeValue",
        "description": "This is a new AttributeValue",
        "created_at": "2025-05-27T10:30:45Z",
        "updated_at": "2025-05-27T10:30:45Z"
      }
    },
    "update_request": {
      "name": "Updated AttributeValue",
      "description": "This is an updated AttributeValue"
    },
    "update_response": {
      "status": "success",
      "status_code": 200,
      "message": "AttributeValue updated successfully",
      "data": {
        "id": 1,
        "name": "Updated AttributeValue",
        "description": "This is an updated AttributeValue",
        "created_at": "2025-05-20T10:30:45Z",
        "updated_at": "2025-05-27T11:15:30Z"
      }
    },
    "delete_response": {
      "status": "success",
      "status_code": 204,
      "message": "AttributeValue deleted successfully"
    },
    "error_response": {
      "status": "error",
      "status_code": 400,
      "message": "Invalid input",
      "errors": {
        "name": [
          "This field is required."
        ],
        "description": [
          "This field cannot be blank."
        ]
      }
    }
  },
  "attribute": {
    "list_response": {
      "status": "success",
      "status_code": 200,
      "message": "List of Attributes",
      "data": [
        {
          "id": 1,
          "name": "Example Attribute 1",
          "created_at": "2025-05-20T10:30:45Z"
        },
        {
          "id": 2,
          "name": "Example Attribute 2",
          "created_at": "2025-05-21T11:30:45Z"
        }
      ],
      "pagination": {
        "count": 20,
        "page_size": 10,
        "current_page": 1,
        "total_pages": 2,
        "next": "/api/v1/attributes?page=2",
        "previous": null
      }
    },
    "detail_response": {
      "status": "success",
      "status_code": 200,
      "message": "Attribute details",
      "data": {
        "id": 1,
        "name": "Example Attribute",
        "description": "This is an example Attribute",
        "created_at": "2025-05-20T10:30:45Z",
        "updated_at": "2025-05-25T14:15:30Z"
      }
    },
    "create_request": {
      "name": "New Attribute",
      "description": "This is a new Attribute"
    },
    "create_response": {
      "status": "success",
      "status_code": 201,
      "message": "Attribute created successfully",
      "data": {
        "id": 3,
        "name": "New Attribute",
        "description": "This is a new Attribute",
        "created_at": "2025-05-27T10:30:45Z",
        "updated_at": "2025-05-27T10:30:45Z"
      }
    },
    "update_request": {
      "name": "Updated Attribute",
      "description": "This is an updated Attribute"
    },
    "update_response": {
      "status": "success",
      "status_code": 200,
      "message": "Attribute updated successfully",
      "data": {
        "id": 1,
        "name": "Updated Attribute",
        "description": "This is an updated Attribute",
        "created_at": "2025-05-20T10:30:45Z",
        "updated_at": "2025-05-27T11:15:30Z"
      }
    },
    "delete_response": {
      "status": "success",
      "status_code": 204,
      "message": "Attribute deleted successfully"
    },
    "error_response": {
      "status": "error",
      "status_code": 400,
      "message": "Invalid input",
      "errors": {
        "name": [
          "This field is required."
        ],
        "description": [
          "This field cannot be blank."
        ]
      }
    }
  },
  "brand": {
    "list_response": {
      "status": "success",
      "status_code": 200,
      "message": "List of Brands",
      "data": [
        {
          "id": 1,
          "name": "Example Brand 1",
          "created_at": "2025-05-20T10:30:45Z"
        },
        {
          "id": 2,
          "name": "Example Brand 2",
          "created_at": "2025-05-21T11:30:45Z"
        }
      ],
      "pagination": {
        "count": 20,
        "page_size": 10,
        "current_page": 1,
        "total_pages": 2,
        "next": "/api/v1/brands?page=2",
        "previous": null
      }
    },
    "detail_response": {
      "status": "success",
      "status_code": 200,
      "message": "Brand details",
      "data": {
        "id": 1,
        "name": "Example Brand",
        "description": "This is an example Brand",
        "created_at": "2025-05-20T10:30:45Z",
        "updated_at": "2025-05-25T14:15:30Z"
      }
    },
    "create_request": {
      "name": "New Brand",
      "description": "This is a new Brand"
    },
    "create_response": {
      "status": "success",
      "status_code": 201,
      "message": "Brand created successfully",
      "data": {
        "id": 3,
        "name": "New Brand",
        "description": "This is a new Brand",
        "created_at": "2025-05-27T10:30:45Z",
        "updated_at": "2025-05-27T10:30:45Z"
      }
    },
    "update_request": {
      "name": "Updated Brand",
      "description": "This is an updated Brand"
    },
    "update_response": {
      "status": "success",
      "status_code": 200,
      "message": "Brand updated successfully",
      "data": {
        "id": 1,
        "name": "Updated Brand",
        "description": "This is an updated Brand",
        "created_at": "2025-05-20T10:30:45Z",
        "updated_at": "2025-05-27T11:15:30Z"
      }
    },
    "delete_response": {
      "status": "success",
      "status_code": 204,
      "message": "Brand deleted successfully"
    },
    "error_response": {
      "status": "error",
      "status_code": 400,
      "message": "Invalid input",
      "errors": {
        "name": [
          "This field is required."
        ],
        "description": [
          "This field cannot be blank."
        ]
      }
    }
  },
  "category": {
    "list_response": {
      "status": "success",
      "status_code": 200,
      "message": "List of Categorys",
      "data": [
        {
          "id": 1,
          "name": "Example Category 1",
          "created_at": "2025-05-20T10:30:45Z"
        },
        {
          "id": 2,
          "name": "Example Category 2",
          "created_at": "2025-05-21T11:30:45Z"
        }
      ],
      "pagination": {
        "count": 20,
        "page_size": 10,
        "current_page": 1,
        "total_pages": 2,
        "next": "/api/v1/categorys?page=2",
        "previous": null
      }
    },
    "detail_response": {
      "status": "success",
      "status_code": 200,
      "message": "Category details",
      "data": {
        "id": 1,
        "name": "Example Category",
        "description": "This is an example Category",
        "created_at": "2025-05-20T10:30:45Z",
        "updated_at": "2025-05-25T14:15:30Z"
      }
    },
    "create_request": {
      "name": "New Category",
      "description": "This is a new Category"
    },
    "create_response": {
      "status": "success",
      "status_code": 201,
      "message": "Category created successfully",
      "data": {
        "id": 3,
        "name": "New Category",
        "description": "This is a new Category",
        "created_at": "2025-05-27T10:30:45Z",
        "updated_at": "2025-05-27T10:30:45Z"
      }
    },
    "update_request": {
      "name": "Updated Category",
      "description": "This is an updated Category"
    },
    "update_response": {
      "status": "success",
      "status_code": 200,
      "message": "Category updated successfully",
      "data": {
        "id": 1,
        "name": "Updated Category",
        "description": "This is an updated Category",
        "created_at": "2025-05-20T10:30:45Z",
        "updated_at": "2025-05-27T11:15:30Z"
      }
    },
    "delete_response": {
      "status": "success",
      "status_code": 204,
      "message": "Category deleted successfully"
    },
    "error_response": {
      "status": "error",
      "status_code": 400,
      "message": "Invalid input",
      "errors": {
        "name": [
          "This field is required."
        ],
        "description": [
          "This field cannot be blank."
        ]
      }
    }
  },
  "tag": {
    "list_response": {
      "status": "success",
      "status_code": 200,
      "message": "List of Tags",
      "data": [
        {
          "id": 1,
          "name": "Example Tag 1",
          "created_at": "2025-05-20T10:30:45Z"
        },
        {
          "id": 2,
          "name": "Example Tag 2",
          "created_at": "2025-05-21T11:30:45Z"
        }
      ],
      "pagination": {
        "count": 20,
        "page_size": 10,
        "current_page": 1,
        "total_pages": 2,
        "next": "/api/v1/tags?page=2",
        "previous": null
      }
    },
    "detail_response": {
      "status": "success",
      "status_code": 200,
      "message": "Tag details",
      "data": {
        "id": 1,
        "name": "Example Tag",
        "description": "This is an example Tag",
        "created_at": "2025-05-20T10:30:45Z",
        "updated_at": "2025-05-25T14:15:30Z"
      }
    },
    "create_request": {
      "name": "New Tag",
      "description": "This is a new Tag"
    },
    "create_response": {
      "status": "success",
      "status_code": 201,
      "message": "Tag created successfully",
      "data": {
        "id": 3,
        "name": "New Tag",
        "description": "This is a new Tag",
        "created_at": "2025-05-27T10:30:45Z",
        "updated_at": "2025-05-27T10:30:45Z"
      }
    },
    "update_request": {
      "name": "Updated Tag",
      "description": "This is an updated Tag"
    },
    "update_response": {
      "status": "success",
      "status_code": 200,
      "message": "Tag updated successfully",
      "data": {
        "id": 1,
        "name": "Updated Tag",
        "description": "This is an updated Tag",
        "created_at": "2025-05-20T10:30:45Z",
        "updated_at": "2025-05-27T11:15:30Z"
      }
    },
    "delete_response": {
      "status": "success",
      "status_code": 204,
      "message": "Tag deleted successfully"
    },
    "error_response": {
      "status": "error",
      "status_code": 400,
      "message": "Invalid input",
      "errors": {
        "name": [
          "This field is required."
        ],
        "description": [
          "This field cannot be blank."
        ]
      }
    }
  }
}