{
  "faq": {
    "list_response": {
      "status": "success",
      "status_code": 200,
      "message": "List of FAQs",
      "data": [
        {
          "id": 1,
          "name": "Example FAQ 1",
          "created_at": "2025-05-20T10:30:45Z"
        },
        {
          "id": 2,
          "name": "Example FAQ 2",
          "created_at": "2025-05-21T11:30:45Z"
        }
      ],
      "pagination": {
        "count": 20,
        "page_size": 10,
        "current_page": 1,
        "total_pages": 2,
        "next": "/api/v1/faqs?page=2",
        "previous": null
      }
    },
    "detail_response": {
      "status": "success",
      "status_code": 200,
      "message": "FAQ details",
      "data": {
        "id": 1,
        "name": "Example FAQ",
        "description": "This is an example FAQ",
        "created_at": "2025-05-20T10:30:45Z",
        "updated_at": "2025-05-25T14:15:30Z"
      }
    },
    "create_request": {
      "name": "New FAQ",
      "description": "This is a new FAQ"
    },
    "create_response": {
      "status": "success",
      "status_code": 201,
      "message": "FAQ created successfully",
      "data": {
        "id": 3,
        "name": "New FAQ",
        "description": "This is a new FAQ",
        "created_at": "2025-05-27T10:30:45Z",
        "updated_at": "2025-05-27T10:30:45Z"
      }
    },
    "update_request": {
      "name": "Updated FAQ",
      "description": "This is an updated FAQ"
    },
    "update_response": {
      "status": "success",
      "status_code": 200,
      "message": "FAQ updated successfully",
      "data": {
        "id": 1,
        "name": "Updated FAQ",
        "description": "This is an updated FAQ",
        "created_at": "2025-05-20T10:30:45Z",
        "updated_at": "2025-05-27T11:15:30Z"
      }
    },
    "delete_response": {
      "status": "success",
      "status_code": 204,
      "message": "FAQ deleted successfully"
    },
    "error_response": {
      "status": "error",
      "status_code": 400,
      "message": "Invalid input",
      "errors": {
        "name": [
          "This field is required."
        ],
        "description": [
          "This field cannot be blank."
        ]
      }
    }
  },
  "supportcategory": {
    "list_response": {
      "status": "success",
      "status_code": 200,
      "message": "List of SupportCategorys",
      "data": [
        {
          "id": 1,
          "name": "Example SupportCategory 1",
          "created_at": "2025-05-20T10:30:45Z"
        },
        {
          "id": 2,
          "name": "Example SupportCategory 2",
          "created_at": "2025-05-21T11:30:45Z"
        }
      ],
      "pagination": {
        "count": 20,
        "page_size": 10,
        "current_page": 1,
        "total_pages": 2,
        "next": "/api/v1/supportcategorys?page=2",
        "previous": null
      }
    },
    "detail_response": {
      "status": "success",
      "status_code": 200,
      "message": "SupportCategory details",
      "data": {
        "id": 1,
        "name": "Example SupportCategory",
        "description": "This is an example SupportCategory",
        "created_at": "2025-05-20T10:30:45Z",
        "updated_at": "2025-05-25T14:15:30Z"
      }
    },
    "create_request": {
      "name": "New SupportCategory",
      "description": "This is a new SupportCategory"
    },
    "create_response": {
      "status": "success",
      "status_code": 201,
      "message": "SupportCategory created successfully",
      "data": {
        "id": 3,
        "name": "New SupportCategory",
        "description": "This is a new SupportCategory",
        "created_at": "2025-05-27T10:30:45Z",
        "updated_at": "2025-05-27T10:30:45Z"
      }
    },
    "update_request": {
      "name": "Updated SupportCategory",
      "description": "This is an updated SupportCategory"
    },
    "update_response": {
      "status": "success",
      "status_code": 200,
      "message": "SupportCategory updated successfully",
      "data": {
        "id": 1,
        "name": "Updated SupportCategory",
        "description": "This is an updated SupportCategory",
        "created_at": "2025-05-20T10:30:45Z",
        "updated_at": "2025-05-27T11:15:30Z"
      }
    },
    "delete_response": {
      "status": "success",
      "status_code": 204,
      "message": "SupportCategory deleted successfully"
    },
    "error_response": {
      "status": "error",
      "status_code": 400,
      "message": "Invalid input",
      "errors": {
        "name": [
          "This field is required."
        ],
        "description": [
          "This field cannot be blank."
        ]
      }
    }
  },
  "supportticket": {
    "list_response": {
      "status": "success",
      "status_code": 200,
      "message": "List of SupportTickets",
      "data": [
        {
          "id": 1,
          "name": "Example SupportTicket 1",
          "created_at": "2025-05-20T10:30:45Z"
        },
        {
          "id": 2,
          "name": "Example SupportTicket 2",
          "created_at": "2025-05-21T11:30:45Z"
        }
      ],
      "pagination": {
        "count": 20,
        "page_size": 10,
        "current_page": 1,
        "total_pages": 2,
        "next": "/api/v1/supporttickets?page=2",
        "previous": null
      }
    },
    "detail_response": {
      "status": "success",
      "status_code": 200,
      "message": "SupportTicket details",
      "data": {
        "id": 1,
        "name": "Example SupportTicket",
        "description": "This is an example SupportTicket",
        "created_at": "2025-05-20T10:30:45Z",
        "updated_at": "2025-05-25T14:15:30Z"
      }
    },
    "create_request": {
      "name": "New SupportTicket",
      "description": "This is a new SupportTicket"
    },
    "create_response": {
      "status": "success",
      "status_code": 201,
      "message": "SupportTicket created successfully",
      "data": {
        "id": 3,
        "name": "New SupportTicket",
        "description": "This is a new SupportTicket",
        "created_at": "2025-05-27T10:30:45Z",
        "updated_at": "2025-05-27T10:30:45Z"
      }
    },
    "update_request": {
      "name": "Updated SupportTicket",
      "description": "This is an updated SupportTicket"
    },
    "update_response": {
      "status": "success",
      "status_code": 200,
      "message": "SupportTicket updated successfully",
      "data": {
        "id": 1,
        "name": "Updated SupportTicket",
        "description": "This is an updated SupportTicket",
        "created_at": "2025-05-20T10:30:45Z",
        "updated_at": "2025-05-27T11:15:30Z"
      }
    },
    "delete_response": {
      "status": "success",
      "status_code": 204,
      "message": "SupportTicket deleted successfully"
    },
    "error_response": {
      "status": "error",
      "status_code": 400,
      "message": "Invalid input",
      "errors": {
        "name": [
          "This field is required."
        ],
        "description": [
          "This field cannot be blank."
        ]
      }
    }
  },
  "ticketreply": {
    "list_response": {
      "status": "success",
      "status_code": 200,
      "message": "List of TicketReplys",
      "data": [
        {
          "id": 1,
          "name": "Example TicketReply 1",
          "created_at": "2025-05-20T10:30:45Z"
        },
        {
          "id": 2,
          "name": "Example TicketReply 2",
          "created_at": "2025-05-21T11:30:45Z"
        }
      ],
      "pagination": {
        "count": 20,
        "page_size": 10,
        "current_page": 1,
        "total_pages": 2,
        "next": "/api/v1/ticketreplys?page=2",
        "previous": null
      }
    },
    "detail_response": {
      "status": "success",
      "status_code": 200,
      "message": "TicketReply details",
      "data": {
        "id": 1,
        "name": "Example TicketReply",
        "description": "This is an example TicketReply",
        "created_at": "2025-05-20T10:30:45Z",
        "updated_at": "2025-05-25T14:15:30Z"
      }
    },
    "create_request": {
      "name": "New TicketReply",
      "description": "This is a new TicketReply"
    },
    "create_response": {
      "status": "success",
      "status_code": 201,
      "message": "TicketReply created successfully",
      "data": {
        "id": 3,
        "name": "New TicketReply",
        "description": "This is a new TicketReply",
        "created_at": "2025-05-27T10:30:45Z",
        "updated_at": "2025-05-27T10:30:45Z"
      }
    },
    "update_request": {
      "name": "Updated TicketReply",
      "description": "This is an updated TicketReply"
    },
    "update_response": {
      "status": "success",
      "status_code": 200,
      "message": "TicketReply updated successfully",
      "data": {
        "id": 1,
        "name": "Updated TicketReply",
        "description": "This is an updated TicketReply",
        "created_at": "2025-05-20T10:30:45Z",
        "updated_at": "2025-05-27T11:15:30Z"
      }
    },
    "delete_response": {
      "status": "success",
      "status_code": 204,
      "message": "TicketReply deleted successfully"
    },
    "error_response": {
      "status": "error",
      "status_code": 400,
      "message": "Invalid input",
      "errors": {
        "name": [
          "This field is required."
        ],
        "description": [
          "This field cannot be blank."
        ]
      }
    }
  }
}